<svg width="2340" height="1126" viewBox="0 0 2340 1126" fill="none" xmlns="http://www.w3.org/2000/svg">
<path d="M1539.23 672C1660.14 983 1941.01 990 1941.01 990L2340 985V1126H0V0H1367.17C1367.17 0 1403.44 148 1457.38 362C1511.33 576 1528.07 659 1538.26 669.5C1538.58 670.33 1538.9 671.163 1539.23 672Z" fill="white"/>
</svg>
